{
    "header": {
        "id": "7b4907a7-630b-43a6-8eaa-7add73fb1e51",
        "test": false,
        "prepared": "2017-03-20T11:25:11.035+01:00",
        "sender": {
            "id": "ECB"
        }
    },
    "dataSets": [
        {
            "action": "Replace",
            "validFrom": "2017-03-20T11:25:11.035+01:00",
            "observations": {
                "0:0:0:0:0:0:0:0:0:0": [
                    3.2696,
                    null,
                    null,
                    0,
                    null,
                    null,
                    null,
                    null,
                    null,
                    null,
                    0,
                    null,
                    null,
                    0,
                    0,
                    0,
                    0,
                    0,
                    0,
                    null,
                    null
                ],
                "0:0:0:0:0:0:0:0:0:1": [
                    2.9966,
                    null,
                    null,
                    0,
                    null,
                    null,
                    null,
                    null,
                    null,
                    null,
                    0,
                    null,
                    null,
                    0,
                    0,
                    0,
                    0,
                    0,
                    0,
                    null,
                    null
                ],
                "0:0:0:0:0:0:0:0:0:2": [
                    2.873,
                    null,
                    null,
                    0,
                    null,
                    null,
                    null,
                    null,
                    null,
                    null,
                    0,
                    null,
                    null,
                    0,
                    0,
                    0,
                    0,
                    0,
                    0,
                    null,
                    null
                ],
                "0:0:0:0:0:0:0:0:0:3": [
                    2.8257,
                    null,
                    null,
                    0,
                    null,
                    null,
                    null,
                    null,
                    null,
                    null,
                    0,
                    null,
                    null,
                    0,
                    0,
                    0,
                    0,
                    0,
                    0,
                    null,
                    null
                ],
                "0:0:0:0:0:0:0:0:0:4": [
                    2.4937,
                    null,
                    null,
                    0,
                    null,
                    null,
                    null,
                    null,
                    null,
                    null,
                    0,
                    null,
                    null,
                    0,
                    0,
                    0,
                    0,
                    0,
                    0,
                    null,
                    null
                ],
                "0:0:0:0:0:0:0:0:0:5": [
                    2.2866,
                    null,
                    null,
                    0,
                    null,
                    null,
                    null,
                    null,
                    null,
                    null,
                    0,
                    null,
                    null,
                    0,
                    0,
                    0,
                    0,
                    0,
                    0,
                    null,
                    null
                ],
                "0:0:0:0:0:0:0:0:0:6": [
                    2.0678,
                    null,
                    null,
                    0,
                    null,
                    null,
                    null,
                    null,
                    null,
                    null,
                    0,
                    null,
                    null,
                    0,
                    0,
                    0,
                    0,
                    0,
                    0,
                    null,
                    null
                ],
                "0:0:0:0:0:0:0:0:0:7": [
                    1.969,
                    null,
                    null,
                    0,
                    null,
                    null,
                    null,
                    null,
                    null,
                    null,
                    0,
                    null,
                    null,
                    0,
                    0,
                    0,
                    0,
                    0,
                    0,
                    null,
                    null
                ],
                "0:0:0:0:0:0:0:0:0:8": [
                    2.0402,
                    null,
                    null,
                    0,
                    null,
                    null,
                    null,
                    null,
                    null,
                    null,
                    0,
                    null,
                    null,
                    0,
                    0,
                    0,
                    0,
                    0,
                    0,
                    null,
                    null
                ],
                "0:0:0:0:0:0:0:0:0:9": [
                    2.0154,
                    null,
                    null,
                    0,
                    null,
                    null,
                    null,
                    null,
                    null,
                    null,
                    0,
                    null,
                    null,
                    0,
                    0,
                    0,
                    0,
                    0,
                    0,
                    null,
                    null
                ],
                "0:0:0:0:0:0:0:0:0:10": [
                    1.8493,
                    null,
                    null,
                    0,
                    null,
                    null,
                    null,
                    null,
                    null,
                    null,
                    0,
                    null,
                    null,
                    0,
                    0,
                    0,
                    0,
                    0,
                    0,
                    null,
                    null
                ],
                "0:0:0:0:0:0:0:0:0:11": [
                    1.7672,
                    null,
                    null,
                    0,
                    null,
                    null,
                    null,
                    null,
                    null,
                    null,
                    0,
                    null,
                    null,
                    0,
                    0,
                    0,
                    0,
                    0,
                    0,
                    null,
                    null
                ],
                "0:0:0:0:0:0:0:0:0:12": [
                    1.923,
                    null,
                    null,
                    0,
                    null,
                    null,
                    null,
                    null,
                    null,
                    null,
                    0,
                    null,
                    null,
                    0,
                    0,
                    0,
                    0,
                    0,
                    0,
                    null,
                    null
                ],
                "0:0:0:0:0:0:0:0:0:13": [
                    1.9644,
                    null,
                    null,
                    0,
                    null,
                    null,
                    null,
                    null,
                    null,
                    null,
                    0,
                    null,
                    null,
                    0,
                    0,
                    0,
                    0,
                    0,
                    0,
                    null,
                    null
                ],
                "0:0:0:0:0:0:0:0:0:14": [
                    1.7467,
                    null,
                    null,
                    0,
                    null,
                    null,
                    null,
                    null,
                    null,
                    null,
                    0,
                    null,
                    null,
                    0,
                    0,
                    0,
                    0,
                    0,
                    0,
                    null,
                    null
                ],
                "0:0:0:0:0:0:0:0:0:15": [
                    1.6447,
                    null,
                    null,
                    0,
                    null,
                    null,
                    null,
                    null,
                    null,
                    null,
                    0,
                    null,
                    null,
                    0,
                    0,
                    0,
                    0,
                    0,
                    0,
                    null,
                    null
                ],
                "0:0:0:0:0:0:0:0:0:16": [
                    1.7513,
                    null,
                    null,
                    0,
                    null,
                    null,
                    null,
                    null,
                    null,
                    null,
                    0,
                    null,
                    null,
                    0,
                    0,
                    0,
                    0,
                    0,
                    0,
                    null,
                    null
                ],
                "0:0:0:0:0:0:0:0:0:17": [
                    2.0361,
                    null,
                    null,
                    0,
                    null,
                    null,
                    null,
                    null,
                    null,
                    null,
                    0,
                    null,
                    null,
                    0,
                    0,
                    0,
                    0,
                    0,
                    0,
                    null,
                    null
                ],
                "0:0:0:0:0:0:0:0:0:18": [
                    2.0643,
                    null,
                    null,
                    0,
                    null,
                    null,
                    null,
                    null,
                    null,
                    null,
                    0,
                    null,
                    null,
                    0,
                    0,
                    0,
                    0,
                    0,
                    0,
                    null,
                    null
                ],
                "0:0:0:0:0:0:0:0:0:19": [
                    2.2152,
                    null,
                    null,
                    0,
                    null,
                    null,
                    null,
                    null,
                    null,
                    null,
                    0,
                    null,
                    null,
                    0,
                    0,
                    0,
                    0,
                    0,
                    0,
                    null,
                    null
                ],
                "0:0:0:0:0:0:0:0:0:20": [
                    2.3432,
                    null,
                    null,
                    0,
                    null,
                    null,
                    null,
                    null,
                    null,
                    null,
                    0,
                    null,
                    null,
                    0,
                    0,
                    0,
                    0,
                    0,
                    0,
                    null,
                    null
                ],
                "0:0:0:0:0:0:0:0:0:21": [
                    2.1903,
                    null,
                    null,
                    0,
                    null,
                    null,
                    null,
                    null,
                    null,
                    null,
                    0,
                    null,
                    null,
                    0,
                    0,
                    0,
                    0,
                    0,
                    0,
                    null,
                    null
                ],
                "0:0:0:0:0:0:0:0:0:22": [
                    2.0781,
                    null,
                    null,
                    0,
                    null,
                    null,
                    null,
                    null,
                    null,
                    null,
                    0,
                    null,
                    null,
                    0,
                    0,
                    0,
                    0,
                    0,
                    0,
                    null,
                    null
                ],
                "0:0:0:0:0:0:0:0:0:23": [
                    2.1718,
                    null,
                    null,
                    0,
                    null,
                    null,
                    null,
                    null,
                    null,
                    null,
                    0,
                    null,
                    null,
                    0,
                    0,
                    0,
                    0,
                    0,
                    0,
                    null,
                    null
                ],
                "0:0:0:0:0:0:0:0:0:24": [
                    2.1311,
                    null,
                    null,
                    0,
                    null,
                    null,
                    null,
                    null,
                    null,
                    null,
                    0,
                    null,
                    null,
                    0,
                    0,
                    0,
                    0,
                    0,
                    0,
                    null,
                    null
                ],
                "0:0:0:0:0:0:0:0:0:25": [
                    1.952,
                    null,
                    null,
                    0,
                    null,
                    null,
                    null,
                    null,
                    null,
                    null,
                    0,
                    null,
                    null,
                    0,
                    0,
                    0,
                    0,
                    0,
                    0,
                    null,
                    null
                ],
                "0:0:0:0:0:0:0:0:0:26": [
                    1.8675,
                    null,
                    null,
                    0,
                    null,
                    null,
                    null,
                    null,
                    null,
                    null,
                    0,
                    null,
                    null,
                    0,
                    0,
                    0,
                    0,
                    0,
                    0,
                    null,
                    null
                ],
                "0:0:0:0:0:0:0:0:0:27": [
                    1.7683,
                    null,
                    null,
                    0,
                    null,
                    null,
                    null,
                    null,
                    null,
                    null,
                    0,
                    null,
                    null,
                    0,
                    0,
                    0,
                    0,
                    0,
                    0,
                    null,
                    null
                ],
                "0:0:0:0:0:0:0:0:0:28": [
                    1.6199,
                    null,
                    null,
                    0,
                    null,
                    null,
                    null,
                    null,
                    null,
                    null,
                    0,
                    null,
                    null,
                    0,
                    0,
                    0,
                    0,
                    0,
                    0,
                    null,
                    null
                ],
                "0:0:0:0:0:0:0:0:0:29": [
                    1.6506,
                    null,
                    null,
                    0,
                    null,
                    null,
                    null,
                    null,
                    null,
                    null,
                    0,
                    null,
                    null,
                    0,
                    0,
                    0,
                    0,
                    0,
                    0,
                    null,
                    null
                ],
                "0:0:0:0:0:0:0:0:0:30": [
                    1.4656,
                    null,
                    null,
                    0,
                    null,
                    null,
                    null,
                    null,
                    null,
                    null,
                    0,
                    null,
                    null,
                    0,
                    0,
                    0,
                    0,
                    0,
                    0,
                    null,
                    null
                ],
                "0:0:0:0:0:0:0:0:0:31": [
                    1.2798,
                    null,
                    null,
                    0,
                    null,
                    null,
                    null,
                    null,
                    null,
                    null,
                    0,
                    null,
                    null,
                    0,
                    0,
                    0,
                    0,
                    0,
                    0,
                    null,
                    null
                ],
                "0:0:0:0:0:0:0:0:0:32": [
                    1.221,
                    null,
                    null,
                    0,
                    null,
                    null,
                    null,
                    null,
                    null,
                    null,
                    0,
                    null,
                    null,
                    0,
                    0,
                    0,
                    0,
                    0,
                    0,
                    null,
                    null
                ],
                "0:0:0:0:0:0:0:0:0:33": [
                    1.1022,
                    null,
                    null,
                    0,
                    null,
                    null,
                    null,
                    null,
                    null,
                    null,
                    0,
                    null,
                    null,
                    0,
                    0,
                    0,
                    0,
                    0,
                    0,
                    null,
                    null
                ],
                "0:0:0:0:0:0:0:0:0:34": [
                    0.9762,
                    null,
                    null,
                    0,
                    null,
                    null,
                    null,
                    null,
                    null,
                    null,
                    0,
                    null,
                    null,
                    0,
                    0,
                    0,
                    0,
                    0,
                    0,
                    null,
                    null
                ],
                "0:0:0:0:0:0:0:0:0:35": [
                    0.8133,
                    null,
                    null,
                    0,
                    null,
                    null,
                    null,
                    null,
                    null,
                    null,
                    0,
                    null,
                    null,
                    0,
                    0,
                    0,
                    0,
                    0,
                    0,
                    null,
                    null
                ],
                "0:0:0:0:0:0:0:0:0:36": [
                    0.5434,
                    null,
                    null,
                    0,
                    null,
                    null,
                    null,
                    null,
                    null,
                    null,
                    0,
                    null,
                    null,
                    0,
                    0,
                    0,
                    0,
                    0,
                    0,
                    null,
                    null
                ],
                "0:0:0:0:0:0:0:0:0:37": [
                    0.4403,
                    null,
                    null,
                    0,
                    null,
                    null,
                    null,
                    null,
                    null,
                    null,
                    0,
                    null,
                    null,
                    0,
                    0,
                    0,
                    0,
                    0,
                    0,
                    null,
                    null
                ],
                "0:0:0:0:0:0:0:0:0:38": [
                    0.3736,
                    null,
                    null,
                    0,
                    null,
                    null,
                    null,
                    null,
                    null,
                    null,
                    0,
                    null,
                    null,
                    0,
                    0,
                    0,
                    0,
                    0,
                    0,
                    null,
                    null
                ],
                "0:0:0:0:0:0:0:0:0:39": [
                    0.2911,
                    null,
                    null,
                    0,
                    null,
                    null,
                    null,
                    null,
                    null,
                    null,
                    0,
                    null,
                    null,
                    0,
                    0,
                    0,
                    0,
                    0,
                    0,
                    null,
                    null
                ],
                "0:0:0:0:0:0:0:0:0:40": [
                    0.7255,
                    null,
                    null,
                    0,
                    null,
                    null,
                    null,
                    null,
                    null,
                    null,
                    0,
                    null,
                    null,
                    0,
                    0,
                    0,
                    0,
                    0,
                    0,
                    null,
                    null
                ],
                "0:0:0:0:0:0:0:0:0:41": [
                    1.0638,
                    null,
                    null,
                    0,
                    null,
                    null,
                    null,
                    null,
                    null,
                    null,
                    0,
                    null,
                    null,
                    0,
                    0,
                    0,
                    0,
                    0,
                    0,
                    null,
                    null
                ],
                "0:0:0:0:0:0:0:0:0:42": [
                    1.0841,
                    null,
                    null,
                    0,
                    null,
                    null,
                    null,
                    null,
                    null,
                    null,
                    0,
                    null,
                    null,
                    0,
                    0,
                    0,
                    0,
                    0,
                    0,
                    null,
                    null
                ],
                "0:0:0:0:0:0:0:0:0:43": [
                    0.9598,
                    null,
                    null,
                    0,
                    null,
                    null,
                    null,
                    null,
                    null,
                    null,
                    0,
                    null,
                    null,
                    0,
                    0,
                    0,
                    0,
                    0,
                    0,
                    null,
                    null
                ],
                "0:0:0:0:0:0:0:0:0:44": [
                    0.9706,
                    null,
                    null,
                    0,
                    null,
                    null,
                    null,
                    null,
                    null,
                    null,
                    0,
                    null,
                    null,
                    0,
                    0,
                    0,
                    0,
                    0,
                    0,
                    null,
                    null
                ],
                "0:0:0:0:0:0:0:0:0:45": [
                    0.8297,
                    null,
                    null,
                    0,
                    null,
                    null,
                    null,
                    null,
                    null,
                    null,
                    0,
                    null,
                    null,
                    0,
                    0,
                    0,
                    0,
                    0,
                    0,
                    null,
                    null
                ],
                "0:0:0:0:0:0:0:0:0:46": [
                    0.8194,
                    null,
                    null,
                    0,
                    null,
                    null,
                    null,
                    null,
                    null,
                    null,
                    0,
                    null,
                    null,
                    0,
                    0,
                    0,
                    0,
                    0,
                    0,
                    null,
                    null
                ],
                "0:0:0:0:0:0:0:0:0:47": [
                    0.8632,
                    null,
                    null,
                    0,
                    null,
                    null,
                    null,
                    null,
                    null,
                    null,
                    0,
                    null,
                    null,
                    0,
                    0,
                    0,
                    0,
                    0,
                    0,
                    null,
                    null
                ],
                "0:0:0:0:0:0:0:0:0:48": [
                    0.7672,
                    null,
                    null,
                    0,
                    null,
                    null,
                    null,
                    null,
                    null,
                    null,
                    0,
                    null,
                    null,
                    0,
                    0,
                    0,
                    0,
                    0,
                    0,
                    null,
                    null
                ],
                "0:0:0:0:0:0:0:0:0:49": [
                    0.526,
                    null,
                    null,
                    0,
                    null,
                    null,
                    null,
                    null,
                    null,
                    null,
                    0,
                    null,
                    null,
                    0,
                    0,
                    0,
                    0,
                    0,
                    0,
                    null,
                    null
                ],
                "0:0:0:0:0:0:0:0:0:50": [
                    0.4572,
                    null,
                    null,
                    0,
                    null,
                    null,
                    null,
                    null,
                    null,
                    null,
                    0,
                    null,
                    null,
                    0,
                    0,
                    0,
                    0,
                    0,
                    0,
                    null,
                    null
                ],
                "0:0:0:0:0:0:0:0:0:51": [
                    0.3796,
                    null,
                    null,
                    0,
                    null,
                    null,
                    null,
                    null,
                    null,
                    null,
                    0,
                    null,
                    null,
                    0,
                    0,
                    0,
                    0,
                    0,
                    0,
                    null,
                    null
                ],
                "0:0:0:0:0:0:0:0:0:52": [
                    0.3666,
                    null,
                    null,
                    0,
                    null,
                    null,
                    null,
                    null,
                    null,
                    null,
                    0,
                    null,
                    null,
                    0,
                    0,
                    0,
                    0,
                    0,
                    0,
                    null,
                    null
                ],
                "0:0:0:0:0:0:0:0:0:53": [
                    0.3277,
                    null,
                    null,
                    0,
                    null,
                    null,
                    null,
                    null,
                    null,
                    null,
                    0,
                    null,
                    null,
                    0,
                    0,
                    0,
                    0,
                    0,
                    0,
                    null,
                    null
                ],
                "0:0:0:0:0:0:0:0:0:54": [
                    0.1583,
                    null,
                    null,
                    0,
                    null,
                    null,
                    null,
                    null,
                    null,
                    null,
                    0,
                    null,
                    null,
                    0,
                    0,
                    0,
                    0,
                    0,
                    0,
                    null,
                    null
                ],
                "0:0:0:0:0:0:0:0:0:55": [
                    0.1068,
                    null,
                    null,
                    0,
                    null,
                    null,
                    null,
                    null,
                    null,
                    null,
                    0,
                    null,
                    null,
                    0,
                    0,
                    0,
                    0,
                    0,
                    0,
                    null,
                    null
                ],
                "0:0:0:0:0:0:0:0:0:56": [
                    0.1484,
                    null,
                    null,
                    0,
                    null,
                    null,
                    null,
                    null,
                    null,
                    null,
                    0,
                    null,
                    null,
                    0,
                    0,
                    0,
                    0,
                    0,
                    0,
                    null,
                    null
                ],
                "0:0:0:0:0:0:0:0:0:57": [
                    0.2407,
                    null,
                    null,
                    0,
                    null,
                    null,
                    null,
                    null,
                    null,
                    null,
                    0,
                    null,
                    null,
                    0,
                    0,
                    0,
                    0,
                    0,
                    0,
                    null,
                    null
                ],
                "0:0:0:0:0:0:0:0:0:58": [
                    0.4916,
                    null,
                    null,
                    0,
                    null,
                    null,
                    null,
                    null,
                    null,
                    null,
                    0,
                    null,
                    null,
                    0,
                    0,
                    0,
                    0,
                    0,
                    0,
                    null,
                    null
                ],
                "0:0:0:0:0:0:0:0:0:59": [
                    0.5345,
                    null,
                    null,
                    0,
                    null,
                    null,
                    null,
                    null,
                    null,
                    null,
                    0,
                    null,
                    null,
                    0,
                    0,
                    0,
                    0,
                    0,
                    0,
                    null,
                    null
                ],
                "0:0:0:0:0:0:0:0:0:60": [
                    0.5705,
                    null,
                    null,
                    0,
                    null,
                    null,
                    null,
                    null,
                    null,
                    null,
                    0,
                    null,
                    null,
                    0,
                    0,
                    0,
                    0,
                    0,
                    0,
                    null,
                    null
                ],
                "0:0:0:0:0:0:0:0:0:61": [
                    0.5899,
                    null,
                    null,
                    0,
                    null,
                    null,
                    null,
                    null,
                    null,
                    null,
                    0,
                    null,
                    null,
                    0,
                    0,
                    0,
                    0,
                    0,
                    0,
                    null,
                    null
                ]
            }
        }
    ],
    "structure": {
        "links": [
            {
                "title": "Interest rate statistics",
                "rel": "dataflow",
                "href": "https://sdw-wsrest.ecb.europa.eu:443/service/dataflow/ECB/IRS/1.0"
            }
        ],
        "name": "Interest rate statistics",
        "dimensions": {
            "observation": [
                {
                    "id": "FREQ",
                    "name": "Frequency",
                    "values": [
                        {
                            "id": "M",
                            "name": "Monthly"
                        }
                    ]
                },
                {
                    "id": "REF_AREA",
                    "name": "Reference area",
                    "values": [
                        {
                            "id": "AT",
                            "name": "Austria"
                        }
                    ]
                },
                {
                    "id": "IR_TYPE",
                    "name": "Interest rate type",
                    "values": [
                        {
                            "id": "L",
                            "name": "Long-term interest rate for convergence purposes"
                        }
                    ]
                },
                {
                    "id": "TR_TYPE",
                    "name": "Transaction type",
                    "values": [
                        {
                            "id": "L40",
                            "name": "Debt security issued"
                        }
                    ]
                },
                {
                    "id": "MATURITY_CAT",
                    "name": "Maturity category",
                    "values": [
                        {
                            "id": "CI",
                            "name": "10 years"
                        }
                    ]
                },
                {
                    "id": "BS_COUNT_SECTOR",
                    "name": "BS counterpart sector",
                    "values": [
                        {
                            "id": "0000",
                            "name": "Unspecified counterpart sector"
                        }
                    ]
                },
                {
                    "id": "CURRENCY_TRANS",
                    "name": "Currency of transaction",
                    "values": [
                        {
                            "id": "EUR",
                            "name": "Euro"
                        }
                    ]
                },
                {
                    "id": "IR_BUS_COV",
                    "name": "IR business coverage",
                    "values": [
                        {
                            "id": "N",
                            "name": "New business"
                        }
                    ]
                },
                {
                    "id": "IR_FV_TYPE",
                    "name": "Interest rate type (fix/var)",
                    "values": [
                        {
                            "id": "Z",
                            "name": "Unspecified"
                        }
                    ]
                },
                {
                    "id": "TIME_PERIOD",
                    "name": "Time period or range",
                    "role": "time",
                    "values": [
                        {
                            "id": "2012-01",
                            "name": "2012-01",
                            "start": "2012-01-01T00:00:00.000+01:00",
                            "end": "2012-01-31T23:59:59.999+01:00"
                        },
                        {
                            "id": "2012-02",
                            "name": "2012-02",
                            "start": "2012-02-01T00:00:00.000+01:00",
                            "end": "2012-02-29T23:59:59.999+01:00"
                        },
                        {
                            "id": "2012-03",
                            "name": "2012-03",
                            "start": "2012-03-01T00:00:00.000+01:00",
                            "end": "2012-03-31T23:59:59.999+02:00"
                        },
                        {
                            "id": "2012-04",
                            "name": "2012-04",
                            "start": "2012-04-01T00:00:00.000+02:00",
                            "end": "2012-04-30T23:59:59.999+02:00"
                        },
                        {
                            "id": "2012-05",
                            "name": "2012-05",
                            "start": "2012-05-01T00:00:00.000+02:00",
                            "end": "2012-05-31T23:59:59.999+02:00"
                        },
                        {
                            "id": "2012-06",
                            "name": "2012-06",
                            "start": "2012-06-01T00:00:00.000+02:00",
                            "end": "2012-06-30T23:59:59.999+02:00"
                        },
                        {
                            "id": "2012-07",
                            "name": "2012-07",
                            "start": "2012-07-01T00:00:00.000+02:00",
                            "end": "2012-07-31T23:59:59.999+02:00"
                        },
                        {
                            "id": "2012-08",
                            "name": "2012-08",
                            "start": "2012-08-01T00:00:00.000+02:00",
                            "end": "2012-08-31T23:59:59.999+02:00"
                        },
                        {
                            "id": "2012-09",
                            "name": "2012-09",
                            "start": "2012-09-01T00:00:00.000+02:00",
                            "end": "2012-09-30T23:59:59.999+02:00"
                        },
                        {
                            "id": "2012-10",
                            "name": "2012-10",
                            "start": "2012-10-01T00:00:00.000+02:00",
                            "end": "2012-10-31T23:59:59.999+01:00"
                        },
                        {
                            "id": "2012-11",
                            "name": "2012-11",
                            "start": "2012-11-01T00:00:00.000+01:00",
                            "end": "2012-11-30T23:59:59.999+01:00"
                        },
                        {
                            "id": "2012-12",
                            "name": "2012-12",
                            "start": "2012-12-01T00:00:00.000+01:00",
                            "end": "2012-12-31T23:59:59.999+01:00"
                        },
                        {
                            "id": "2013-01",
                            "name": "2013-01",
                            "start": "2013-01-01T00:00:00.000+01:00",
                            "end": "2013-01-31T23:59:59.999+01:00"
                        },
                        {
                            "id": "2013-02",
                            "name": "2013-02",
                            "start": "2013-02-01T00:00:00.000+01:00",
                            "end": "2013-02-28T23:59:59.999+01:00"
                        },
                        {
                            "id": "2013-03",
                            "name": "2013-03",
                            "start": "2013-03-01T00:00:00.000+01:00",
                            "end": "2013-03-31T23:59:59.999+02:00"
                        },
                        {
                            "id": "2013-04",
                            "name": "2013-04",
                            "start": "2013-04-01T00:00:00.000+02:00",
                            "end": "2013-04-30T23:59:59.999+02:00"
                        },
                        {
                            "id": "2013-05",
                            "name": "2013-05",
                            "start": "2013-05-01T00:00:00.000+02:00",
                            "end": "2013-05-31T23:59:59.999+02:00"
                        },
                        {
                            "id": "2013-06",
                            "name": "2013-06",
                            "start": "2013-06-01T00:00:00.000+02:00",
                            "end": "2013-06-30T23:59:59.999+02:00"
                        },
                        {
                            "id": "2013-07",
                            "name": "2013-07",
                            "start": "2013-07-01T00:00:00.000+02:00",
                            "end": "2013-07-31T23:59:59.999+02:00"
                        },
                        {
                            "id": "2013-08",
                            "name": "2013-08",
                            "start": "2013-08-01T00:00:00.000+02:00",
                            "end": "2013-08-31T23:59:59.999+02:00"
                        },
                        {
                            "id": "2013-09",
                            "name": "2013-09",
                            "start": "2013-09-01T00:00:00.000+02:00",
                            "end": "2013-09-30T23:59:59.999+02:00"
                        },
                        {
                            "id": "2013-10",
                            "name": "2013-10",
                            "start": "2013-10-01T00:00:00.000+02:00",
                            "end": "2013-10-31T23:59:59.999+01:00"
                        },
                        {
                            "id": "2013-11",
                            "name": "2013-11",
                            "start": "2013-11-01T00:00:00.000+01:00",
                            "end": "2013-11-30T23:59:59.999+01:00"
                        },
                        {
                            "id": "2013-12",
                            "name": "2013-12",
                            "start": "2013-12-01T00:00:00.000+01:00",
                            "end": "2013-12-31T23:59:59.999+01:00"
                        },
                        {
                            "id": "2014-01",
                            "name": "2014-01",
                            "start": "2014-01-01T00:00:00.000+01:00",
                            "end": "2014-01-31T23:59:59.999+01:00"
                        },
                        {
                            "id": "2014-02",
                            "name": "2014-02",
                            "start": "2014-02-01T00:00:00.000+01:00",
                            "end": "2014-02-28T23:59:59.999+01:00"
                        },
                        {
                            "id": "2014-03",
                            "name": "2014-03",
                            "start": "2014-03-01T00:00:00.000+01:00",
                            "end": "2014-03-31T23:59:59.999+02:00"
                        },
                        {
                            "id": "2014-04",
                            "name": "2014-04",
                            "start": "2014-04-01T00:00:00.000+02:00",
                            "end": "2014-04-30T23:59:59.999+02:00"
                        },
                        {
                            "id": "2014-05",
                            "name": "2014-05",
                            "start": "2014-05-01T00:00:00.000+02:00",
                            "end": "2014-05-31T23:59:59.999+02:00"
                        },
                        {
                            "id": "2014-06",
                            "name": "2014-06",
                            "start": "2014-06-01T00:00:00.000+02:00",
                            "end": "2014-06-30T23:59:59.999+02:00"
                        },
                        {
                            "id": "2014-07",
                            "name": "2014-07",
                            "start": "2014-07-01T00:00:00.000+02:00",
                            "end": "2014-07-31T23:59:59.999+02:00"
                        },
                        {
                            "id": "2014-08",
                            "name": "2014-08",
                            "start": "2014-08-01T00:00:00.000+02:00",
                            "end": "2014-08-31T23:59:59.999+02:00"
                        },
                        {
                            "id": "2014-09",
                            "name": "2014-09",
                            "start": "2014-09-01T00:00:00.000+02:00",
                            "end": "2014-09-30T23:59:59.999+02:00"
                        },
                        {
                            "id": "2014-10",
                            "name": "2014-10",
                            "start": "2014-10-01T00:00:00.000+02:00",
                            "end": "2014-10-31T23:59:59.999+01:00"
                        },
                        {
                            "id": "2014-11",
                            "name": "2014-11",
                            "start": "2014-11-01T00:00:00.000+01:00",
                            "end": "2014-11-30T23:59:59.999+01:00"
                        },
                        {
                            "id": "2014-12",
                            "name": "2014-12",
                            "start": "2014-12-01T00:00:00.000+01:00",
                            "end": "2014-12-31T23:59:59.999+01:00"
                        },
                        {
                            "id": "2015-01",
                            "name": "2015-01",
                            "start": "2015-01-01T00:00:00.000+01:00",
                            "end": "2015-01-31T23:59:59.999+01:00"
                        },
                        {
                            "id": "2015-02",
                            "name": "2015-02",
                            "start": "2015-02-01T00:00:00.000+01:00",
                            "end": "2015-02-28T23:59:59.999+01:00"
                        },
                        {
                            "id": "2015-03",
                            "name": "2015-03",
                            "start": "2015-03-01T00:00:00.000+01:00",
                            "end": "2015-03-31T23:59:59.999+02:00"
                        },
                        {
                            "id": "2015-04",
                            "name": "2015-04",
                            "start": "2015-04-01T00:00:00.000+02:00",
                            "end": "2015-04-30T23:59:59.999+02:00"
                        },
                        {
                            "id": "2015-05",
                            "name": "2015-05",
                            "start": "2015-05-01T00:00:00.000+02:00",
                            "end": "2015-05-31T23:59:59.999+02:00"
                        },
                        {
                            "id": "2015-06",
                            "name": "2015-06",
                            "start": "2015-06-01T00:00:00.000+02:00",
                            "end": "2015-06-30T23:59:59.999+02:00"
                        },
                        {
                            "id": "2015-07",
                            "name": "2015-07",
                            "start": "2015-07-01T00:00:00.000+02:00",
                            "end": "2015-07-31T23:59:59.999+02:00"
                        },
                        {
                            "id": "2015-08",
                            "name": "2015-08",
                            "start": "2015-08-01T00:00:00.000+02:00",
                            "end": "2015-08-31T23:59:59.999+02:00"
                        },
                        {
                            "id": "2015-09",
                            "name": "2015-09",
                            "start": "2015-09-01T00:00:00.000+02:00",
                            "end": "2015-09-30T23:59:59.999+02:00"
                        },
                        {
                            "id": "2015-10",
                            "name": "2015-10",
                            "start": "2015-10-01T00:00:00.000+02:00",
                            "end": "2015-10-31T23:59:59.999+01:00"
                        },
                        {
                            "id": "2015-11",
                            "name": "2015-11",
                            "start": "2015-11-01T00:00:00.000+01:00",
                            "end": "2015-11-30T23:59:59.999+01:00"
                        },
                        {
                            "id": "2015-12",
                            "name": "2015-12",
                            "start": "2015-12-01T00:00:00.000+01:00",
                            "end": "2015-12-31T23:59:59.999+01:00"
                        },
                        {
                            "id": "2016-01",
                            "name": "2016-01",
                            "start": "2016-01-01T00:00:00.000+01:00",
                            "end": "2016-01-31T23:59:59.999+01:00"
                        },
                        {
                            "id": "2016-02",
                            "name": "2016-02",
                            "start": "2016-02-01T00:00:00.000+01:00",
                            "end": "2016-02-29T23:59:59.999+01:00"
                        },
                        {
                            "id": "2016-03",
                            "name": "2016-03",
                            "start": "2016-03-01T00:00:00.000+01:00",
                            "end": "2016-03-31T23:59:59.999+02:00"
                        },
                        {
                            "id": "2016-04",
                            "name": "2016-04",
                            "start": "2016-04-01T00:00:00.000+02:00",
                            "end": "2016-04-30T23:59:59.999+02:00"
                        },
                        {
                            "id": "2016-05",
                            "name": "2016-05",
                            "start": "2016-05-01T00:00:00.000+02:00",
                            "end": "2016-05-31T23:59:59.999+02:00"
                        },
                        {
                            "id": "2016-06",
                            "name": "2016-06",
                            "start": "2016-06-01T00:00:00.000+02:00",
                            "end": "2016-06-30T23:59:59.999+02:00"
                        },
                        {
                            "id": "2016-07",
                            "name": "2016-07",
                            "start": "2016-07-01T00:00:00.000+02:00",
                            "end": "2016-07-31T23:59:59.999+02:00"
                        },
                        {
                            "id": "2016-08",
                            "name": "2016-08",
                            "start": "2016-08-01T00:00:00.000+02:00",
                            "end": "2016-08-31T23:59:59.999+02:00"
                        },
                        {
                            "id": "2016-09",
                            "name": "2016-09",
                            "start": "2016-09-01T00:00:00.000+02:00",
                            "end": "2016-09-30T23:59:59.999+02:00"
                        },
                        {
                            "id": "2016-10",
                            "name": "2016-10",
                            "start": "2016-10-01T00:00:00.000+02:00",
                            "end": "2016-10-31T23:59:59.999+01:00"
                        },
                        {
                            "id": "2016-11",
                            "name": "2016-11",
                            "start": "2016-11-01T00:00:00.000+01:00",
                            "end": "2016-11-30T23:59:59.999+01:00"
                        },
                        {
                            "id": "2016-12",
                            "name": "2016-12",
                            "start": "2016-12-01T00:00:00.000+01:00",
                            "end": "2016-12-31T23:59:59.999+01:00"
                        },
                        {
                            "id": "2017-01",
                            "name": "2017-01",
                            "start": "2017-01-01T00:00:00.000+01:00",
                            "end": "2017-01-31T23:59:59.999+01:00"
                        },
                        {
                            "id": "2017-02",
                            "name": "2017-02",
                            "start": "2017-02-01T00:00:00.000+01:00",
                            "end": "2017-02-28T23:59:59.999+01:00"
                        }
                    ]
                }
            ]
        },
        "attributes": {
            "observation": [
                {
                    "id": "TIME_FORMAT",
                    "name": "Time format code",
                    "values": []
                },
                {
                    "id": "BREAKS",
                    "name": "Breaks",
                    "values": []
                },
                {
                    "id": "COLLECTION",
                    "name": "Collection indicator",
                    "values": [
                        {
                            "id": "A",
                            "name": "Average of observations through period"
                        }
                    ]
                },
                {
                    "id": "DOM_SER_IDS",
                    "name": "Domestic series ids",
                    "values": []
                },
                {
                    "id": "PUBL_ECB",
                    "name": "Source publication (ECB only)",
                    "values": []
                },
                {
                    "id": "PUBL_MU",
                    "name": "Source publication (Euro area only)",
                    "values": []
                },
                {
                    "id": "PUBL_PUBLIC",
                    "name": "Source publication (public)",
                    "values": []
                },
                {
                    "id": "COMPILATION",
                    "name": "Compilation",
                    "values": []
                },
                {
                    "id": "COVERAGE",
                    "name": "Coverage",
                    "values": []
                },
                {
                    "id": "DECIMALS",
                    "name": "Decimals",
                    "values": [
                        {
                            "id": "2",
                            "name": "Two"
                        }
                    ]
                },
                {
                    "id": "NAT_TITLE",
                    "name": "National language title",
                    "values": []
                },
                {
                    "id": "SOURCE_AGENCY",
                    "name": "Source agency",
                    "values": []
                },
                {
                    "id": "TITLE",
                    "name": "Title",
                    "values": [
                        {
                            "name": "Long-term interest rate for convergence purposes - 10 years maturity, denominated in Euro - Austria"
                        }
                    ]
                },
                {
                    "id": "TITLE_COMPL",
                    "name": "Title complement",
                    "values": [
                        {
                            "name": "Austria, Long-term interest rate for convergence purposes - Unspecified rate type, Debt security issued, 10 years maturity, New business coverage, denominated in Euro - Unspecified counterpart sector"
                        }
                    ]
                },
                {
                    "id": "UNIT",
                    "name": "Unit",
                    "values": [
                        {
                            "id": "PC",
                            "name": "Percent"
                        }
                    ]
                },
                {
                    "id": "UNIT_MULT",
                    "name": "Unit multiplier",
                    "values": [
                        {
                            "id": "0",
                            "name": "Units"
                        }
                    ]
                },
                {
                    "id": "OBS_STATUS",
                    "name": "Observation status",
                    "values": [
                        {
                            "id": "A",
                            "name": "Normal value"
                        }
                    ]
                },
                {
                    "id": "OBS_CONF",
                    "name": "Observation confidentiality",
                    "values": [
                        {
                            "id": "F",
                            "name": "Free"
                        }
                    ]
                },
                {
                    "id": "OBS_PRE_BREAK",
                    "name": "Pre-break observation value",
                    "values": []
                },
                {
                    "id": "OBS_COM",
                    "name": "Observation comment",
                    "values": []
                }
            ]
        }
    }
}