{
  "header": {
    "id": "46c78d78-0dcb-45c1-9de9-9d57ad484ab8",
    "test": false,
    "prepared": "2017-03-23T08:14:25.398125Z",
    "sender": {
      "id": "OECD",
      "name": "Organisation for Economic Co-operation and Development"
    },
    "links": [
      {
        "href": "http://stats.oecd.org:80/SDMX-JSON/data/KEI/PRINTO01+PRMNTO01.AUS+AUT+BEL+CAN+CHL+CZE+DNK+EST+FIN+FRA.GP.Q/all?startTime=2015&endTime=2015&dimensionAtObservation=allDimensions",
        "rel": "request"
      }
    ]
  },
  "dataSets": [
    {
      "action": "Information",
      "observations": {
        "0:0:0:0:0": [
          0.609639177804482,
          0,
          null,
          0,
          0,
          null
        ],
        "0:0:0:0:1": [
          -0.886440440846983,
          0,
          null,
          0,
          0,
          null
        ],
        "0:0:0:0:2": [
          1.75180816521674,
          0,
          null,
          0,
          0,
          null
        ],
        "0:0:0:0:3": [
          -0.501823810381974,
          0,
          null,
          0,
          0,
          null
        ],
        "0:1:0:0:0": [
          1.74346201743464,
          0,
          null,
          0,
          0,
          null
        ],
        "0:1:0:0:1": [
          -0.428396572827401,
          0,
          null,
          0,
          0,
          null
        ],
        "0:1:0:0:2": [
          0.215119852489256,
          0,
          null,
          0,
          0,
          null
        ],
        "0:1:0:0:3": [
          0.306654400490624,
          0,
          null,
          0,
          0,
          null
        ],
        "0:2:0:0:0": [
          -0.580457916801026,
          0,
          null,
          0,
          0,
          null
        ],
        "0:2:0:0:1": [
          0.0973078170613029,
          0,
          null,
          0,
          0,
          null
        ],
        "0:2:0:0:2": [
          0.453661697990936,
          0,
          null,
          0,
          0,
          null
        ],
        "0:2:0:0:3": [
          1.32258064516129,
          0,
          null,
          0,
          0,
          null
        ],
        "0:3:0:0:0": [
          -0.674970340629221,
          0,
          null,
          0,
          0,
          null
        ],
        "0:3:0:0:1": [
          -1.55133353288431,
          0,
          null,
          0,
          0,
          null
        ],
        "0:3:0:0:2": [
          1.19169388970324,
          0,
          null,
          0,
          0,
          null
        ],
        "0:3:0:0:3": [
          -0.58460613961239,
          0,
          null,
          0,
          0,
          null
        ],
        "0:4:0:0:0": [
          1.59668835008869,
          0,
          null,
          0,
          0,
          null
        ],
        "0:4:0:0:1": [
          1.13504074505239,
          0,
          null,
          0,
          0,
          null
        ],
        "0:4:0:0:2": [
          -0.374100719424463,
          0,
          null,
          0,
          0,
          null
        ],
        "0:4:0:0:3": [
          0.77989601386481,
          0,
          null,
          0,
          0,
          null
        ],
        "0:5:0:0:0": [
          0.0962155227710083,
          0,
          null,
          0,
          0,
          null
        ],
        "0:5:0:0:1": [
          2.14674783723163,
          0,
          null,
          0,
          0,
          null
        ],
        "0:5:0:0:2": [
          -1.09786700125469,
          0,
          null,
          0,
          0,
          null
        ],
        "0:5:0:0:3": [
          -3.23501427212179,
          0,
          null,
          0,
          0,
          null
        ],
        "0:6:0:0:0": [
          -1.06082036775106,
          0,
          null,
          0,
          0,
          null
        ],
        "0:6:0:0:1": [
          -0.107219442458899,
          0,
          null,
          0,
          0,
          null
        ],
        "0:6:0:0:2": [
          0.536672629695886,
          0,
          null,
          0,
          0,
          null
        ],
        "0:6:0:0:3": [
          0.21352313167261,
          0,
          null,
          0,
          0,
          null
        ],
        "0:7:0:0:0": [
          1.12608827187469,
          0,
          null,
          0,
          0,
          null
        ],
        "0:7:0:0:1": [
          0.302486371493158,
          0,
          null,
          0,
          0,
          null
        ],
        "0:7:0:0:2": [
          0.762220381110196,
          0,
          null,
          0,
          0,
          null
        ],
        "0:7:0:0:3": [
          0.266403552047352,
          0,
          null,
          0,
          0,
          null
        ],
        "0:8:0:0:0": [
          -1.43976236982363,
          0,
          null,
          0,
          0,
          null
        ],
        "0:8:0:0:1": [
          5.09368342961992,
          0,
          null,
          0,
          0,
          null
        ],
        "0:8:0:0:2": [
          -1.89124404695679,
          0,
          null,
          0,
          0,
          null
        ],
        "0:8:0:0:3": [
          -1.04018078102806,
          0,
          null,
          0,
          0,
          null
        ],
        "0:9:0:0:0": [
          -0.797209765819618,
          0,
          null,
          0,
          0,
          null
        ],
        "0:9:0:0:1": [
          0.452034153691591,
          0,
          null,
          0,
          0,
          null
        ],
        "0:9:0:0:2": [
          -1.27499999999999,
          0,
          null,
          0,
          0,
          null
        ],
        "0:9:0:0:3": [
          -1.5193719929096,
          0,
          null,
          0,
          0,
          null
        ],
        "1:3:0:0:0": [
          -1.01419102000824,
          0,
          null,
          0,
          0,
          null
        ],
        "1:3:0:0:1": [
          -0.547861522877197,
          0,
          null,
          0,
          0,
          null
        ],
        "1:3:0:0:2": [
          0.986296044319164,
          0,
          null,
          0,
          0,
          null
        ],
        "1:3:0:0:3": [
          -0.00500458111654567,
          0,
          null,
          0,
          0,
          null
        ],
        "1:6:0:0:0": [
          -0.385019250962552,
          0,
          null,
          0,
          0,
          null
        ],
        "1:6:0:0:1": [
          -0.562192550948708,
          0,
          null,
          0,
          0,
          null
        ],
        "1:6:0:0:2": [
          -0.353356890459349,
          0,
          null,
          0,
          0,
          null
        ],
        "1:6:0:0:3": [
          0.780141843971616,
          0,
          null,
          0,
          0,
          null
        ],
        "1:0:0:0:0": [
          -0.21896383186705,
          0,
          null,
          0,
          0,
          null
        ],
        "1:0:0:0:1": [
          -0.46240056428544,
          0,
          null,
          0,
          0,
          null
        ],
        "1:0:0:0:2": [
          -0.566906814692331,
          0,
          null,
          0,
          0,
          null
        ],
        "1:0:0:0:3": [
          -1.96777131092371,
          0,
          null,
          0,
          0,
          null
        ],
        "1:9:0:0:0": [
          0.575677620532518,
          0,
          null,
          0,
          0,
          null
        ],
        "1:9:0:0:1": [
          -0.977820176484621,
          0,
          null,
          0,
          0,
          null
        ],
        "1:9:0:0:2": [
          -0.91522157996146,
          0,
          null,
          0,
          0,
          null
        ],
        "1:9:0:0:3": [
          -0.0486144871171718,
          0,
          null,
          0,
          0,
          null
        ],
        "1:2:0:0:0": [
          -1.48011100832563,
          0,
          null,
          0,
          0,
          null
        ],
        "1:2:0:0:1": [
          1.0015649452269,
          0,
          null,
          0,
          0,
          null
        ],
        "1:2:0:0:2": [
          1.11558723272388,
          0,
          null,
          0,
          0,
          null
        ],
        "1:2:0:0:3": [
          -0.704872816426587,
          0,
          null,
          0,
          0,
          null
        ],
        "1:8:0:0:0": [
          -1.4397623698236,
          0,
          null,
          0,
          0,
          null
        ],
        "1:8:0:0:1": [
          5.09368342961989,
          0,
          null,
          0,
          0,
          null
        ],
        "1:8:0:0:2": [
          -1.89124404695682,
          0,
          null,
          0,
          0,
          null
        ],
        "1:8:0:0:3": [
          -1.04018078102803,
          0,
          null,
          0,
          0,
          null
        ],
        "1:1:0:0:0": [
          1.80097680097681,
          0,
          null,
          0,
          0,
          null
        ],
        "1:1:0:0:1": [
          0.0899550224887536,
          0,
          null,
          0,
          0,
          null
        ],
        "1:1:0:0:2": [
          0.808867585380489,
          0,
          null,
          0,
          0,
          null
        ],
        "1:1:0:0:3": [
          0.1188707280832,
          0,
          null,
          0,
          0,
          null
        ],
        "1:5:0:0:0": [
          0.763582966226142,
          0,
          null,
          0,
          0,
          null
        ],
        "1:5:0:0:1": [
          1.98192946662781,
          0,
          null,
          0,
          0,
          null
        ],
        "1:5:0:0:2": [
          0.342955130037158,
          0,
          null,
          0,
          0,
          null
        ],
        "1:5:0:0:3": [
          -3.01908288236968,
          0,
          null,
          0,
          0,
          null
        ],
        "1:7:0:0:0": [
          0.743804409459331,
          0,
          null,
          0,
          0,
          null
        ],
        "1:7:0:0:1": [
          0.725069527214925,
          0,
          null,
          0,
          0,
          null
        ],
        "1:7:0:0:2": [
          0.650823390198221,
          0,
          null,
          0,
          0,
          null
        ],
        "1:7:0:0:3": [
          0.502922830737064,
          0,
          null,
          0,
          0,
          null
        ],
        "1:4:0:0:0": [
          1.69635284139101,
          0,
          null,
          0,
          0,
          null
        ],
        "1:4:0:0:1": [
          1.91826522101751,
          0,
          null,
          0,
          0,
          null
        ],
        "1:4:0:0:2": [
          -0.109110747408626,
          0,
          null,
          0,
          0,
          null
        ],
        "1:4:0:0:3": [
          1.33806663025671,
          0,
          null,
          0,
          0,
          null
        ]
      }
    }
  ],
  "structure": {
    "links": [
      {
        "href": "http://stats.oecd.org/SDMX-JSON/dataflow/KEI/all",
        "rel": "dataflow"
      }
    ],
    "name": "Key Short-Term Economic Indicators",
    "description": "Key Short-Term Economic Indicators",
    "dimensions": {
      "observation": [
        {
          "keyPosition": 0,
          "id": "SUBJECT",
          "name": "Subject",
          "values": [
            {
              "id": "PRINTO01",
              "name": "Industrial production, s.a."
            },
            {
              "id": "PRMNTO01",
              "name": "Total manufacturing, s.a."
            }
          ]
        },
        {
          "keyPosition": 1,
          "id": "LOCATION",
          "name": "Country",
          "values": [
            {
              "id": "AUS",
              "name": "Australia"
            },
            {
              "id": "AUT",
              "name": "Austria"
            },
            {
              "id": "BEL",
              "name": "Belgium"
            },
            {
              "id": "CAN",
              "name": "Canada"
            },
            {
              "id": "CZE",
              "name": "Czech Republic"
            },
            {
              "id": "DNK",
              "name": "Denmark"
            },
            {
              "id": "FIN",
              "name": "Finland"
            },
            {
              "id": "FRA",
              "name": "France"
            },
            {
              "id": "CHL",
              "name": "Chile"
            },
            {
              "id": "EST",
              "name": "Estonia"
            }
          ],
          "role": "REF_AREA"
        },
        {
          "keyPosition": 2,
          "id": "MEASURE",
          "name": "Measure",
          "values": [
            {
              "id": "GP",
              "name": "Growth previous period"
            }
          ]
        },
        {
          "keyPosition": 3,
          "id": "FREQUENCY",
          "name": "Frequency",
          "values": [
            {
              "id": "Q",
              "name": "Quarterly"
            }
          ],
          "role": "FREQ"
        },
        {
          "id": "TIME_PERIOD",
          "name": "Time",
          "values": [
            {
              "id": "2015-Q1",
              "name": "Q1-2015"
            },
            {
              "id": "2015-Q2",
              "name": "Q2-2015"
            },
            {
              "id": "2015-Q3",
              "name": "Q3-2015"
            },
            {
              "id": "2015-Q4",
              "name": "Q4-2015"
            }
          ],
          "role": "TIME_PERIOD"
        }
      ]
    },
    "attributes": {
      "dataSet": [],
      "series": [],
      "observation": [
        {
          "id": "TIME_FORMAT",
          "name": "Time Format",
          "values": [
            {
              "id": "P3M",
              "name": "Quarterly"
            }
          ]
        },
        {
          "id": "OBS_STATUS",
          "name": "Observation Status",
          "values": []
        },
        {
          "id": "UNIT",
          "name": "Unit",
          "values": [
            {
              "id": "PC",
              "name": "Percentage"
            }
          ],
          "role": "UNIT_MEASURE"
        },
        {
          "id": "POWERCODE",
          "name": "Unit multiplier",
          "default": "0",
          "values": [
            {
              "id": "0",
              "name": "Units"
            }
          ],
          "role": "UNIT_MULT"
        },
        {
          "id": "REFERENCEPERIOD",
          "name": "Reference period",
          "values": [],
          "role": "BASE_PER"
        }
      ]
    },
    "annotations": [
      {
        "title": "Copyright OECD - All rights reserved",
        "uri": "",
        "text": ""
      },
      {
        "title": "Terms and Conditions",
        "uri": "http://www.oecd.org/termsandconditions/",
        "text": ""
      },
      {
        "title": "Privacy Policy",
        "uri": "http://www.oecd.org/privacy/",
        "text": ""
      },
      {
        "title": "MyOECD",
        "uri": "https://www.oecd.org/login",
        "text": ""
      },
      {
        "title": "Contact Us",
        "uri": "http://www.oecd.org/contact/",
        "text": ""
      }
    ]
  }
}